<?xml version="1.0" encoding="UTF-8" standalone="no"?>
<!DOCTYPE svg PUBLIC "-//W3C//DTD SVG 1.1//EN" "http://www.w3.org/Graphics/SVG/1.1/DTD/svg11.dtd">
<svg width="100%" height="100%" viewBox="0 0 844 844" version="1.1" xmlns="http://www.w3.org/2000/svg" xmlns:xlink="http://www.w3.org/1999/xlink" xml:space="preserve" xmlns:serif="http://www.serif.com/" style="fill-rule:evenodd;clip-rule:evenodd;stroke-linejoin:round;stroke-miterlimit:2;">
    <g transform="matrix(1,0,0,1,-2325.7,-1279.19)">
        <g transform="matrix(4.16667,0,0,4.16667,0,0)">
            <g transform="matrix(0,-1,-1,0,659.335,318.135)">
                <path d="M-90.039,-90.039C-40.311,-90.039 0,-49.726 0,0C0,49.728 -40.311,90.039 -90.039,90.039C-139.766,90.039 -180.078,49.728 -180.078,0C-180.078,-49.726 -139.766,-90.039 -90.039,-90.039" style="fill:rgb(150,22,25);fill-rule:nonzero;"/>
            </g>
        </g>
        <g transform="matrix(4.16667,0,0,4.16667,0,0)">
            <g transform="matrix(0.803384,0,0,0.803384,718.32,404.327)">
                <path d="M0,-16.795C-1.761,-31.258 -14.061,-42.468 -28.998,-42.468C-39.367,-42.468 -48.454,-37.055 -53.645,-28.916C-56.91,-31.094 -60.83,-32.368 -65.05,-32.368C-74.566,-32.368 -82.552,-25.901 -84.91,-17.13C-86.242,-17.387 -87.613,-17.531 -89.021,-17.531C-100.95,-17.531 -110.622,-7.86 -110.622,4.07C-110.622,14.354 -103.43,22.943 -93.805,25.123L-93.805,25.479L-91.765,25.479C-90.863,25.594 -89.952,25.673 -89.021,25.673C-88.088,25.673 -87.177,25.594 -86.275,25.479L-8.256,25.479C-7.355,25.594 -6.443,25.673 -5.512,25.673C6.419,25.673 16.09,16.001 16.09,4.07C16.09,-5.951 9.256,-14.355 0,-16.795" style="fill:white;fill-rule:nonzero;"/>
            </g>
        </g>
        <g transform="matrix(4.16667,0,0,4.16667,0,0)">
            <g transform="matrix(1,0,0,1,659.335,503.271)">
                <path d="M0,-190.195C-52.438,-190.195 -95.098,-147.535 -95.098,-95.097C-95.098,-42.661 -52.438,0 0,0C52.437,0 95.098,-42.661 95.098,-95.097C95.098,-147.535 52.437,-190.195 0,-190.195M0,6.07C-55.785,6.07 -101.168,-39.313 -101.168,-95.097C-101.168,-150.882 -55.785,-196.265 0,-196.265C55.784,-196.265 101.167,-150.882 101.167,-95.097C101.167,-39.313 55.784,6.07 0,6.07" style="fill:rgb(150,22,25);fill-rule:nonzero;"/>
            </g>
        </g>
        <g transform="matrix(4.16667,0,0,4.16667,0,0)">
            <g transform="matrix(0.709962,0,0,0.709962,667.241,402.226)">
                <path d="M0,64.189C0.06,62.532 -0.817,61.072 -2.145,60.275L-2.137,60.262L-25.21,46.801L-25.212,46.818C-26.053,46.318 -27.021,46.005 -28.068,45.967C-29.735,45.907 -31.265,46.528 -32.396,47.58L-38.431,53.072C-38.783,53.365 -39.115,53.68 -39.44,54.001L-39.451,53.997C-39.905,54.481 -40.545,54.788 -41.262,54.788C-41.783,54.788 -42.265,54.626 -42.665,54.352C-56.895,47.127 -68.422,35.379 -75.332,20.966C-75.582,20.578 -75.731,20.119 -75.731,19.624C-75.731,18.841 -75.362,18.152 -74.798,17.696L-74.816,17.677L-69.491,12.235C-68.399,11.141 -67.723,9.635 -67.723,7.967C-67.723,6.919 -68.001,5.941 -68.471,5.082L-68.454,5.081L-81.073,-18.462L-81.086,-18.456C-81.835,-19.811 -83.262,-20.74 -84.92,-20.74C-86.058,-20.74 -87.084,-20.297 -87.865,-19.588L-87.878,-19.6L-88.024,-19.457C-88.027,-19.454 -88.03,-19.451 -88.033,-19.448L-101.242,-6.444L-101.22,-6.439C-104.462,-3.209 -106.468,1.254 -106.468,6.183C-106.468,8.322 -106.071,10.363 -105.379,12.263C-105.395,12.289 -105.409,12.32 -105.425,12.345C-93.707,46.363 -67.494,72.673 -33.185,83.663C-32.828,83.793 -32.462,83.902 -32.095,84.011C-31.907,84.069 -31.723,84.133 -31.534,84.191C-31.534,84.187 -31.532,84.183 -31.532,84.179C-30.296,84.5 -29.012,84.703 -27.684,84.751C-22.757,84.929 -18.225,83.086 -14.879,79.962L-14.876,79.984L-1.404,67.253L-1.395,67.244L-1.246,67.104L-1.257,67.09C-0.521,66.335 -0.041,65.326 0,64.189" style="fill:white;fill-rule:nonzero;"/>
            </g>
        </g>
    </g>
</svg>
