<?xml version="1.0" encoding="UTF-8" standalone="no"?>
<!DOCTYPE svg PUBLIC "-//W3C//DTD SVG 1.1//EN" "http://www.w3.org/Graphics/SVG/1.1/DTD/svg11.dtd">
<svg width="100%" height="100%" viewBox="0 0 2848 937" version="1.1" xmlns="http://www.w3.org/2000/svg" xmlns:xlink="http://www.w3.org/1999/xlink" xml:space="preserve" xmlns:serif="http://www.serif.com/" style="fill-rule:evenodd;clip-rule:evenodd;stroke-linejoin:round;stroke-miterlimit:2;">
    <g transform="matrix(4.16667,0,0,4.16667,0,-1.34745)">
        <path d="M365.874,112.815L386.061,112.769L386.061,112.949C386.061,114.375 386.885,115.41 388.533,116.07C390.164,116.715 392.807,117.046 396.429,117.046L410.369,117.046C413.167,117.046 415.124,116.775 416.273,116.235C417.423,115.695 417.99,114.78 417.99,113.49C417.99,112.319 417.372,111.419 416.153,110.819C414.918,110.219 412.926,109.844 410.163,109.709L391.297,109.394C381.787,109.364 375.213,108.298 371.556,106.183C367.9,104.068 366.08,100.497 366.08,95.457C366.08,90.116 368.054,86.29 372.003,83.98C375.967,81.654 382.593,80.5 391.898,80.5L413.544,80.5C420.445,80.5 425.56,81.609 428.873,83.845C432.204,86.066 433.886,89.516 433.955,94.182L414.9,94.182C414.437,93.296 413.407,92.622 411.828,92.171C410.248,91.706 408.12,91.482 405.442,91.482L392.104,91.482C389.563,91.482 387.778,91.706 386.765,92.171C385.753,92.622 385.237,93.372 385.237,94.437C385.237,95.517 385.769,96.297 386.834,96.762C387.915,97.242 390.353,97.572 394.164,97.782L417.475,97.782C424.29,97.873 429.268,99.087 432.426,101.458C435.568,103.813 437.147,107.489 437.147,112.469C437.147,118.155 435.396,122.161 431.894,124.516C428.376,126.857 422.196,128.027 413.339,128.027L393.958,128.027C383.04,128.027 375.659,126.917 371.797,124.697C367.951,122.476 365.976,118.515 365.874,112.815Z" style="fill:rgb(150,30,30);fill-rule:nonzero;"/>
    </g>
    <g transform="matrix(4.16667,0,0,4.16667,0,-1.34745)">
        <path d="M338.6,62.33L356.106,62.33L353.214,88.871L338.6,88.871L338.6,62.33Z" style="fill:rgb(150,30,30);fill-rule:nonzero;"/>
    </g>
    <g transform="matrix(4.16667,0,0,4.16667,0,-1.34745)">
        <path d="M324.713,81.864L324.713,107.489C324.713,115.35 321.98,120.766 316.515,123.736C311.068,126.721 300.789,128.207 285.699,128.207L264.42,128.207C254.565,128.207 247.407,126.902 242.912,124.292C238.417,121.681 236.177,117.495 236.177,111.75C236.177,111.359 236.195,110.939 236.23,110.444C236.265,109.964 236.336,109.258 236.424,108.314L257.544,108.314C257.825,110.309 258.795,111.734 260.471,112.604C262.127,113.46 264.755,113.895 268.334,113.895L290.458,113.895C294.83,113.895 297.898,113.295 299.661,112.094C301.406,110.894 302.288,108.869 302.288,105.988L302.288,98.712C300.772,100.467 298.586,101.728 295.73,102.493C292.874,103.258 288.889,103.633 283.795,103.633L267.047,103.633C256.31,103.633 248.694,102.507 244.234,100.273C239.774,98.037 237.552,94.302 237.552,89.096L237.552,76.088C237.552,71.048 239.474,67.297 243.335,64.837C247.196,62.377 253.067,61.147 260.946,61.147L295.306,61.147C305.549,61.147 313.006,62.796 317.678,66.112C322.368,69.428 324.713,74.679 324.713,81.864ZM292.169,76.088L270.149,76.088C266.5,76.088 263.838,76.613 262.163,77.649C260.488,78.699 259.659,80.335 259.659,82.57C259.659,84.835 260.435,86.425 262.005,87.371C263.573,88.316 266.289,88.781 270.149,88.781L292.169,88.781C295.818,88.781 298.445,88.271 300.067,87.266C301.688,86.246 302.499,84.595 302.499,82.3C302.499,80.004 301.724,78.399 300.19,77.484C298.656,76.554 295.976,76.088 292.169,76.088Z" style="fill:rgb(150,30,30);fill-rule:nonzero;"/>
    </g>
    <g transform="matrix(4.16667,0,0,4.16667,0,-1.34745)">
        <path d="M211.431,112.005L230.696,112.005L230.696,112.71C230.696,118.14 228.668,122.056 224.594,124.442C220.538,126.827 213.828,128.027 204.481,128.027L185.474,128.027C176.882,128.027 170.339,126.572 165.803,123.646C161.287,120.736 159.019,116.505 159.019,110.999L159.019,98.442C159.019,92.636 161.287,88.196 165.803,85.12C170.339,82.045 176.846,80.5 185.363,80.5L204.481,80.5C213.035,80.5 219.561,82.03 224.059,85.09C228.558,88.166 230.807,92.607 230.807,98.442L230.807,108.314L179.483,108.314C179.483,108.464 179.464,108.689 179.427,108.974C179.39,109.274 179.372,109.454 179.372,109.544C179.372,112.229 180.312,114.134 182.211,115.304C184.091,116.46 187.225,117.046 191.576,117.046L200.149,117.046C204.591,117.046 207.467,116.685 208.795,115.98C210.122,115.275 211.007,113.955 211.431,112.005ZM179.483,98.143L211.007,98.143L211.007,97.962C211.007,95.757 210.159,94.212 208.444,93.296C206.73,92.381 203.762,91.931 199.503,91.931L191.096,91.931C186.838,91.931 183.851,92.397 182.1,93.312C180.349,94.242 179.483,95.787 179.483,97.962L179.483,98.143Z" style="fill:rgb(32,30,31);fill-rule:nonzero;"/>
    </g>
    <g transform="matrix(4.16667,0,0,4.16667,0,-1.34745)">
        <path d="M129.048,127.397L105.051,127.397L79.611,81.129L101.034,81.129L116.93,113.549L133.375,81.129L154.489,81.129L129.048,127.397Z" style="fill:rgb(32,30,31);fill-rule:nonzero;"/>
    </g>
    <g transform="matrix(4.16667,0,0,4.16667,0,-1.34745)">
        <rect x="53.953" y="81.129" width="19.054" height="46.268" style="fill:rgb(32,30,31);fill-rule:nonzero;"/>
    </g>
    <g transform="matrix(4.16667,0,0,4.16667,0,-1.34745)">
        <rect x="53.953" y="61.956" width="19.054" height="13.593" style="fill:rgb(32,30,31);fill-rule:nonzero;"/>
    </g>
    <g transform="matrix(4.16667,0,0,4.16667,0,-1.34745)">
        <path d="M28.426,127.397L9.269,127.397L9.269,93.732L0,93.732L0,81.129L9.269,81.129L9.269,79.629C9.269,73.118 11.02,68.558 14.505,65.917C17.989,63.276 24.067,61.956 32.753,61.956L44.924,61.956L44.924,73.478L44.374,73.478C42.262,73.358 40.752,73.298 39.842,73.298C35.688,73.298 32.736,73.778 30.967,74.753C29.199,75.713 28.323,77.349 28.323,79.629C28.323,80.02 28.341,80.319 28.358,80.529C28.375,80.754 28.392,80.949 28.426,81.129L45.936,81.129L45.936,93.732L28.426,93.732L28.426,127.397Z" style="fill:rgb(32,30,31);fill-rule:nonzero;"/>
    </g>
    <g transform="matrix(4.16667,0,0,4.16667,0,-1.34745)">
        <rect x="0" y="133.24" width="437.147" height="38.758" style="fill:rgb(32,30,31);"/>
    </g>
    <g transform="matrix(4.16667,0,0,4.16667,0,-1.34745)">
        <path d="M456.028,212.95L456.028,211.24L458.431,211.24L458.431,208.188L461.331,208.188L461.331,211.24L470.943,211.24L470.943,212.95L461.331,212.95L461.331,220.396C461.331,221.458 461.585,222.181 462.088,222.562C462.589,222.944 463.549,223.132 464.961,223.132C466.366,223.132 467.313,222.948 467.802,222.58C468.292,222.212 468.54,221.484 468.54,220.396L468.54,220.002L471.484,220.002L471.484,220.116C471.484,222.018 471.026,223.299 470.117,223.957C469.201,224.619 467.306,224.948 464.426,224.948C462.182,224.948 460.619,224.597 459.741,223.9C458.87,223.203 458.431,221.94 458.431,220.116L458.431,212.95L456.028,212.95ZM490.099,219.164L490.099,216.853C490.099,215.147 489.788,214.064 489.158,213.599C488.529,213.13 487.213,212.897 485.204,212.897L483.842,212.897C481.84,212.897 480.537,213.13 479.921,213.59C479.304,214.055 478.999,215.143 478.999,216.853L478.999,219.164C478.999,220.883 479.31,221.975 479.926,222.439C480.549,222.9 481.853,223.132 483.842,223.132L485.204,223.132C487.2,223.132 488.516,222.896 489.152,222.426C489.781,221.957 490.099,220.87 490.099,219.164ZM483.88,224.948C480.95,224.948 478.903,224.553 477.733,223.764C476.57,222.979 475.985,221.593 475.985,219.616L475.985,216.401C475.985,214.415 476.563,213.029 477.727,212.24C478.884,211.451 480.924,211.056 483.842,211.056L485.204,211.056C488.134,211.056 490.188,211.451 491.358,212.24C492.528,213.029 493.112,214.415 493.112,216.401L493.112,219.616C493.112,221.602 492.534,222.988 491.371,223.773C490.208,224.557 488.16,224.948 485.236,224.948L483.88,224.948Z" style="fill:rgb(32,30,31);fill-rule:nonzero;"/>
    </g>
    <g transform="matrix(4.16667,0,0,4.16667,0,-1.34745)">
        <path d="M251.381,211.955C251.381,209.504 252.04,207.798 253.357,206.838C254.674,205.878 256.993,205.399 260.329,205.399L263.469,205.399C266.774,205.399 269.094,205.811 270.429,206.64C271.765,207.469 272.429,208.873 272.429,210.854L272.429,211.687L269.364,211.687L269.364,211.162C269.364,209.714 268.952,208.727 268.121,208.197C267.291,207.667 265.666,207.399 263.247,207.399L261.173,207.399C259.555,207.399 258.372,207.469 257.627,207.609C256.889,207.755 256.273,207.991 255.782,208.324C255.29,208.649 254.944,209.074 254.742,209.6C254.545,210.127 254.446,211.087 254.446,212.481L254.446,217.927C254.446,219.313 254.545,220.269 254.742,220.799C254.944,221.326 255.29,221.751 255.782,222.076C256.273,222.409 256.871,222.646 257.579,222.79C258.28,222.93 259.48,223.001 261.173,223.001L263.247,223.001C265.727,223.001 267.377,222.725 268.195,222.168C269.007,221.611 269.42,220.541 269.42,218.966C269.42,218.725 269.414,218.542 269.407,218.415C269.402,218.287 269.395,218.164 269.383,218.054L272.429,218.054L272.429,219.313C272.429,221.44 271.784,222.922 270.491,223.751C269.198,224.584 266.854,225.001 263.469,225.001L260.329,225.001C256.993,225.001 254.674,224.518 253.357,223.558C252.04,222.597 251.381,220.891 251.381,218.44L251.381,211.955ZM290.012,219.164L290.012,216.853C290.012,215.147 289.711,214.064 289.102,213.599C288.493,213.13 287.218,212.897 285.274,212.897L283.956,212.897C282.018,212.897 280.756,213.13 280.159,213.59C279.562,214.055 279.267,215.143 279.267,216.853L279.267,219.164C279.267,220.883 279.568,221.975 280.166,222.439C280.769,222.9 282.03,223.132 283.956,223.132L285.274,223.132C287.206,223.132 288.48,222.896 289.095,222.426C289.705,221.957 290.012,220.87 290.012,219.164ZM283.993,224.948C281.156,224.948 279.174,224.553 278.042,223.764C276.916,222.979 276.35,221.593 276.35,219.616L276.35,216.401C276.35,214.415 276.91,213.029 278.036,212.24C279.156,211.451 281.131,211.056 283.956,211.056L285.274,211.056C288.111,211.056 290.098,211.451 291.231,212.24C292.363,213.029 292.929,214.415 292.929,216.401L292.929,219.616C292.929,221.602 292.37,222.988 291.244,223.773C290.117,224.557 288.135,224.948 285.304,224.948L283.993,224.948ZM298.395,224.763L298.395,211.24L301.128,211.24L301.128,213.09C301.527,212.393 302.192,211.88 303.122,211.551C304.057,211.222 305.288,211.056 306.815,211.056C308.427,211.056 309.682,211.231 310.593,211.582C311.498,211.937 312.174,212.507 312.624,213.297C313.172,212.507 313.904,211.937 314.809,211.582C315.719,211.231 316.908,211.056 318.372,211.056C320.859,211.056 322.582,211.407 323.542,212.108C324.502,212.814 324.982,214.077 324.982,215.901L324.982,224.763L322.175,224.763L322.175,216.533C322.175,215.025 321.905,214.038 321.357,213.573C320.809,213.104 319.745,212.872 318.157,212.872C316.403,212.872 315.129,213.192 314.329,213.828C313.529,214.467 313.129,215.489 313.129,216.906L313.129,224.763L310.396,224.763L310.396,215.608C310.396,214.538 310.125,213.814 309.577,213.437C309.029,213.06 307.984,212.872 306.445,212.872C304.648,212.872 303.318,213.196 302.475,213.849C301.626,214.499 301.201,215.515 301.201,216.906L301.201,224.763L298.395,224.763ZM331.032,224.763L331.032,211.24L333.764,211.24L333.764,213.09C334.165,212.393 334.829,211.88 335.758,211.551C336.694,211.222 337.924,211.056 339.451,211.056C341.064,211.056 342.319,211.231 343.23,211.582C344.134,211.937 344.812,212.507 345.26,213.297C345.808,212.507 346.541,211.937 347.446,211.582C348.357,211.231 349.545,211.056 351.009,211.056C353.496,211.056 355.218,211.407 356.179,212.108C357.139,212.814 357.619,214.077 357.619,215.901L357.619,224.763L354.812,224.763L354.812,216.533C354.812,215.025 354.542,214.038 353.994,213.573C353.446,213.104 352.381,212.872 350.794,212.872C349.04,212.872 347.765,213.192 346.965,213.828C346.166,214.467 345.765,215.489 345.765,216.906L345.765,224.763L343.033,224.763L343.033,215.608C343.033,214.538 342.762,213.814 342.214,213.437C341.667,213.06 340.62,212.872 339.082,212.872C337.285,212.872 335.955,213.196 335.112,213.849C334.263,214.499 333.838,215.515 333.838,216.906L333.838,224.763L331.032,224.763ZM363.262,207.899L363.262,205.636L366.069,205.636L366.069,207.899L363.262,207.899ZM363.262,224.763L363.262,211.24L366.069,211.24L366.069,224.763L363.262,224.763ZM370.014,212.95L370.014,211.24L372.34,211.24L372.34,208.188L375.146,208.188L375.146,211.24L384.453,211.24L384.453,212.95L375.146,212.95L375.146,220.396C375.146,221.458 375.393,222.181 375.88,222.562C376.366,222.944 377.295,223.132 378.661,223.132C380.021,223.132 380.938,222.948 381.412,222.58C381.886,222.212 382.126,221.484 382.126,220.396L382.126,220.002L384.975,220.002L384.975,220.116C384.975,222.018 384.533,223.299 383.652,223.957C382.766,224.619 380.932,224.948 378.144,224.948C375.971,224.948 374.458,224.597 373.608,223.9C372.765,223.203 372.34,221.94 372.34,220.116L372.34,212.95L370.014,212.95ZM388.225,212.95L388.225,211.24L390.551,211.24L390.551,208.188L393.358,208.188L393.358,211.24L402.664,211.24L402.664,212.95L393.358,212.95L393.358,220.396C393.358,221.458 393.604,222.181 394.09,222.562C394.577,222.944 395.506,223.132 396.873,223.132C398.232,223.132 399.149,222.948 399.624,222.58C400.097,222.212 400.337,221.484 400.337,220.396L400.337,220.002L403.187,220.002L403.187,220.116C403.187,222.018 402.744,223.299 401.863,223.957C400.977,224.619 399.143,224.948 396.355,224.948C394.182,224.948 392.669,224.597 391.82,223.9C390.976,223.203 390.551,221.94 390.551,220.116L390.551,212.95L388.225,212.95ZM410.462,216.686L421.207,216.686L421.207,216.16C421.207,214.893 420.887,214.034 420.253,213.578C419.613,213.126 418.351,212.897 416.468,212.897L415.151,212.897C413.274,212.897 412.024,213.126 411.397,213.578C410.775,214.034 410.462,214.893 410.462,216.16L410.462,216.686ZM415.188,224.948C412.351,224.948 410.369,224.553 409.237,223.764C408.11,222.979 407.545,221.593 407.545,219.611L407.545,216.406C407.545,214.415 408.104,213.029 409.23,212.24C410.35,211.451 412.326,211.056 415.151,211.056L416.468,211.056C419.305,211.056 421.294,211.451 422.425,212.24C423.558,213.029 424.125,214.415 424.125,216.406L424.125,218.449L410.462,218.463C410.449,218.598 410.443,218.752 410.436,218.914C410.43,219.081 410.424,219.313 410.424,219.611C410.424,221.01 410.738,221.944 411.366,222.418C411.987,222.896 413.25,223.132 415.151,223.132L416.468,223.132C418.161,223.132 419.336,222.957 420.001,222.61C420.659,222.264 421.047,221.659 421.152,220.791L424.088,220.791C423.946,222.259 423.281,223.317 422.099,223.97C420.918,224.624 419.053,224.948 416.499,224.948L415.188,224.948ZM441.701,219.111L441.701,216.906C441.701,215.489 441.24,214.467 440.323,213.828C439.399,213.192 437.928,212.872 435.91,212.872C434.07,212.872 432.845,213.108 432.236,213.578C431.627,214.047 431.325,215.138 431.325,216.853L431.325,219.164C431.325,220.87 431.627,221.957 432.236,222.426C432.845,222.896 434.07,223.132 435.91,223.132C437.928,223.132 439.399,222.812 440.323,222.176C441.24,221.537 441.701,220.514 441.701,219.111ZM441.812,222.685C441.363,223.474 440.662,224.048 439.707,224.409C438.754,224.768 437.455,224.948 435.824,224.948C433.116,224.948 431.202,224.548 430.088,223.747C428.967,222.944 428.408,221.567 428.408,219.616L428.408,216.401C428.408,214.441 428.967,213.06 430.088,212.257C431.202,211.455 433.116,211.056 435.824,211.056C437.386,211.056 438.624,211.222 439.535,211.551C440.452,211.88 441.172,212.42 441.701,213.165L441.701,205.636L444.507,205.636L444.507,224.763L441.812,224.763L441.812,222.685Z" style="fill:rgb(32,30,31);fill-rule:nonzero;"/>
    </g>
    <g transform="matrix(4.16667,0,0,4.16667,0,-1.34745)">
        <path d="M507.295,224.763L507.295,205.636L525.812,205.636L525.812,207.662L510.2,207.662L510.2,213.923L525.371,213.923L525.371,215.871L510.2,215.871L510.2,222.764L525.812,222.764L525.812,224.763L507.295,224.763ZM527.923,224.763L535.004,217.533L528.832,211.24L531.948,211.24L536.456,215.98L540.964,211.24L544.087,211.24L537.981,217.533L545.061,224.763L541.939,224.763L536.456,219.063L531.083,224.763L527.923,224.763ZM554.658,224.948C551.869,224.948 549.921,224.553 548.806,223.764C547.699,222.974 547.142,221.593 547.142,219.611L547.142,216.406C547.142,214.42 547.693,213.029 548.8,212.24C549.902,211.451 551.844,211.056 554.622,211.056L555.918,211.056C558.555,211.056 560.456,211.424 561.624,212.157C562.791,212.888 563.396,214.09 563.445,215.765L560.577,215.779C560.516,214.682 560.177,213.928 559.547,213.515C558.924,213.104 557.708,212.897 555.918,212.897L554.622,212.897C552.715,212.897 551.475,213.13 550.888,213.59C550.301,214.055 550.01,215.143 550.01,216.853L550.01,219.164C550.01,220.883 550.307,221.975 550.894,222.439C551.487,222.9 552.728,223.132 554.622,223.132L555.918,223.132C557.732,223.132 558.966,222.909 559.608,222.457C560.255,222.01 560.577,221.185 560.577,219.997L560.577,219.764L563.445,219.764L563.445,220.023C563.445,221.786 562.87,223.049 561.714,223.808C560.558,224.566 558.64,224.948 555.947,224.948L554.658,224.948ZM570.525,216.686L581.09,216.686L581.09,216.16C581.09,214.893 580.776,214.034 580.152,213.578C579.523,213.126 578.283,212.897 576.431,212.897L575.136,212.897C573.291,212.897 572.062,213.126 571.444,213.578C570.834,214.034 570.525,214.893 570.525,216.16L570.525,216.686ZM575.172,224.948C572.382,224.948 570.434,224.553 569.321,223.764C568.214,222.979 567.657,221.593 567.657,219.611L567.657,216.406C567.657,214.415 568.208,213.029 569.314,212.24C570.416,211.451 572.359,211.056 575.136,211.056L576.431,211.056C579.22,211.056 581.175,211.451 582.289,212.24C583.402,213.029 583.959,214.415 583.959,216.406L583.959,218.449L570.525,218.463C570.512,218.598 570.506,218.752 570.501,218.914C570.494,219.081 570.489,219.313 570.489,219.611C570.489,221.01 570.797,221.944 571.415,222.418C572.026,222.896 573.266,223.132 575.136,223.132L576.431,223.132C578.095,223.132 579.252,222.957 579.904,222.61C580.552,222.264 580.933,221.659 581.037,220.791L583.922,220.791C583.784,222.259 583.13,223.317 581.968,223.97C580.806,224.624 578.972,224.948 576.462,224.948L575.172,224.948ZM588.933,224.763L588.933,205.636L591.693,205.636L591.693,224.763L588.933,224.763ZM597.423,224.763L597.423,205.636L600.182,205.636L600.182,224.763L597.423,224.763ZM608.019,216.686L618.585,216.686L618.585,216.16C618.585,214.893 618.27,214.034 617.647,213.578C617.017,213.126 615.777,212.897 613.925,212.897L612.63,212.897C610.785,212.897 609.556,213.126 608.939,213.578C608.328,214.034 608.019,214.893 608.019,216.16L608.019,216.686ZM612.667,224.948C609.877,224.948 607.928,224.553 606.814,223.764C605.708,222.979 605.151,221.593 605.151,219.611L605.151,216.406C605.151,214.415 605.702,213.029 606.808,212.24C607.91,211.451 609.852,211.056 612.63,211.056L613.925,211.056C616.714,211.056 618.67,211.451 619.783,212.24C620.896,213.029 621.453,214.415 621.453,216.406L621.453,218.449L608.019,218.463C608.006,218.598 608.001,218.752 607.995,218.914C607.989,219.081 607.983,219.313 607.983,219.611C607.983,221.01 608.292,221.944 608.909,222.418C609.52,222.896 610.76,223.132 612.63,223.132L613.925,223.132C615.589,223.132 616.745,222.957 617.399,222.61C618.046,222.264 618.427,221.659 618.531,220.791L621.417,220.791C621.278,222.259 620.624,223.317 619.463,223.97C618.3,224.624 616.466,224.948 613.956,224.948L612.667,224.948ZM626.427,224.763L626.427,211.24L629.078,211.24L629.078,213.09C629.531,212.393 630.252,211.88 631.244,211.551C632.236,211.222 633.544,211.056 635.177,211.056C637.622,211.056 639.335,211.416 640.315,212.13C641.296,212.845 641.786,214.104 641.786,215.901L641.786,224.763L639.026,224.763L639.026,216.327C639.026,214.915 638.742,213.985 638.167,213.538C637.592,213.094 636.478,212.872 634.826,212.872C632.872,212.872 631.45,213.196 630.542,213.84C629.64,214.49 629.187,215.506 629.187,216.906L629.187,224.763L626.427,224.763ZM654.099,224.948C651.31,224.948 649.362,224.553 648.249,223.764C647.141,222.974 646.585,221.593 646.585,219.611L646.585,216.406C646.585,214.42 647.134,213.029 648.243,212.24C649.343,211.451 651.286,211.056 654.064,211.056L655.359,211.056C657.997,211.056 659.897,211.424 661.065,212.157C662.233,212.888 662.838,214.09 662.886,215.765L660.018,215.779C659.958,214.682 659.619,213.928 658.99,213.515C658.366,213.104 657.15,212.897 655.359,212.897L654.064,212.897C652.158,212.897 650.918,213.13 650.33,213.59C649.744,214.055 649.453,215.143 649.453,216.853L649.453,219.164C649.453,220.883 649.75,221.975 650.336,222.439C650.929,222.9 652.17,223.132 654.064,223.132L655.359,223.132C657.174,223.132 658.408,222.909 659.05,222.457C659.698,222.01 660.018,221.185 660.018,219.997L660.018,219.764L662.886,219.764L662.886,220.023C662.886,221.786 662.311,223.049 661.156,223.808C660.001,224.566 658.082,224.948 655.388,224.948L654.099,224.948ZM669.966,216.686L680.533,216.686L680.533,216.16C680.533,214.893 680.217,214.034 679.594,213.578C678.964,213.126 677.724,212.897 675.873,212.897L674.578,212.897C672.732,212.897 671.504,213.126 670.886,213.578C670.275,214.034 669.966,214.893 669.966,216.16L669.966,216.686ZM674.614,224.948C671.825,224.948 669.876,224.553 668.762,223.764C667.655,222.979 667.098,221.593 667.098,219.611L667.098,216.406C667.098,214.415 667.649,213.029 668.756,212.24C669.857,211.451 671.8,211.056 674.578,211.056L675.873,211.056C678.663,211.056 680.617,211.451 681.73,212.24C682.844,213.029 683.4,214.415 683.4,216.406L683.4,218.449L669.966,218.463C669.955,218.598 669.949,218.752 669.942,218.914C669.936,219.081 669.93,219.313 669.93,219.611C669.93,221.01 670.239,221.944 670.856,222.418C671.467,222.896 672.708,223.132 674.578,223.132L675.873,223.132C677.537,223.132 678.693,222.957 679.346,222.61C679.994,222.264 680.375,221.659 680.478,220.791L683.364,220.791C683.225,222.259 682.572,223.317 681.41,223.97C680.248,224.624 678.415,224.948 675.903,224.948L674.614,224.948Z" style="fill:rgb(32,30,31);fill-rule:nonzero;"/>
    </g>
    <g transform="matrix(4.16667,0,0,4.16667,0,-1.34745)">
        <path d="M510.416,94.057C530.565,111.641 533.688,130.03 521.38,149.821C516.557,157.576 509.063,166.149 499.596,174.371C492.351,179.266 487.128,183.559 479.881,188.456L481.723,188.456C489.143,184.236 496.391,180.964 503.812,176.745C544.104,139.59 543.831,106.577 514.849,79.717C475.062,42.842 392.34,18.207 311.042,6.737C262.892,-0.055 76.582,-15.84 62.002,54.612L65.02,54.612C76.957,-3.395 269.204,16.161 311.358,22.503C389.781,34.3 468.982,57.897 510.416,94.057Z" style="fill:rgb(150,30,30);"/>
    </g>
    <g transform="matrix(4.16667,0,0,4.16667,0,-1.34745)">
        <path d="M501.275,175.081L500.633,146.631L463.457,198.61L529.376,184.497L501.275,175.081Z" style="fill:rgb(150,30,30);"/>
    </g>
    <g transform="matrix(4.16667,0,0,4.16667,0,-1.34745)">
        <path d="M377.185,161.832L377.185,143.406L380.17,143.406L380.17,161.832L377.185,161.832ZM6.16,149.493C6.16,147.131 6.826,145.489 8.161,144.564C9.495,143.638 11.845,143.178 15.224,143.178L18.404,143.178C21.752,143.178 24.102,143.575 25.455,144.374C26.808,145.172 27.481,146.523 27.481,148.433L27.481,149.235L24.376,149.235L24.376,148.728C24.376,147.335 23.959,146.384 23.117,145.874C22.275,145.362 20.629,145.104 18.179,145.104L16.079,145.104C14.439,145.104 13.242,145.172 12.487,145.307C11.739,145.446 11.116,145.674 10.617,145.996C10.118,146.308 9.769,146.718 9.563,147.225C9.364,147.732 9.264,148.657 9.264,150L9.264,155.247C9.264,156.581 9.364,157.502 9.563,158.013C9.769,158.52 10.118,158.93 10.617,159.242C11.116,159.563 11.72,159.792 12.438,159.93C13.148,160.066 14.364,160.133 16.079,160.133L18.179,160.133C20.692,160.133 22.362,159.868 23.192,159.331C24.015,158.795 24.432,157.764 24.432,156.248C24.432,156.015 24.426,155.838 24.421,155.715C24.414,155.592 24.407,155.474 24.395,155.369L27.481,155.369L27.481,156.581C27.481,158.63 26.827,160.057 25.517,160.856C24.208,161.659 21.833,162.06 18.404,162.06L15.224,162.06C11.845,162.06 9.495,161.595 8.161,160.671C6.826,159.745 6.16,158.102 6.16,155.741L6.16,149.493ZM44.058,145.104L42.375,145.104C40.467,145.104 39.114,145.176 38.322,145.315C37.531,145.455 36.852,145.692 36.278,146.021C35.742,146.334 35.367,146.755 35.149,147.289C34.931,147.82 34.819,148.733 34.819,150.025L34.819,155.247C34.819,156.535 34.931,157.438 35.149,157.963C35.367,158.486 35.742,158.904 36.278,159.217C36.852,159.547 37.531,159.783 38.322,159.922C39.114,160.062 40.467,160.133 42.375,160.133L44.058,160.133C45.966,160.133 47.325,160.062 48.13,159.922C48.934,159.783 49.619,159.547 50.193,159.217C50.716,158.913 51.084,158.503 51.297,157.992C51.508,157.481 51.614,156.569 51.614,155.247L51.614,150.005C51.614,148.708 51.502,147.796 51.284,147.262C51.066,146.731 50.692,146.308 50.156,145.996C49.594,145.674 48.921,145.446 48.13,145.307C47.338,145.172 45.979,145.104 44.058,145.104ZM31.715,149.498C31.715,147.14 32.431,145.502 33.872,144.572C35.305,143.642 37.855,143.178 41.521,143.178L44.95,143.178C48.653,143.178 51.209,143.634 52.631,144.55C54.046,145.467 54.757,147.119 54.757,149.498L54.757,155.741C54.757,158.106 54.033,159.749 52.593,160.674C51.153,161.599 48.603,162.06 44.95,162.06L41.521,162.06C37.855,162.06 35.305,161.599 33.872,160.674C32.431,159.749 31.715,158.106 31.715,155.741L31.715,149.498ZM60.448,161.832L60.448,143.406L65.392,143.406L74.706,159.826L83.933,143.406L88.914,143.406L88.914,161.832L85.922,161.832L85.922,145.126L76.533,161.832L72.83,161.832L63.441,145.126L63.441,161.832L60.448,161.832ZM95.498,161.832L95.498,143.406L100.442,143.406L109.756,159.826L118.984,143.406L123.964,143.406L123.964,161.832L120.972,161.832L120.972,145.126L111.583,161.832L107.88,161.832L98.49,145.126L98.49,161.832L95.498,161.832ZM130.285,143.406L133.316,143.406L133.316,155.5C133.316,156.687 133.409,157.519 133.597,157.988C133.79,158.457 134.114,158.837 134.575,159.124C135.062,159.423 135.648,159.63 136.321,159.754C137,159.872 138.167,159.93 139.818,159.93L142.674,159.93C144.339,159.93 145.517,159.872 146.196,159.754C146.881,159.63 147.462,159.423 147.954,159.124C148.403,158.845 148.721,158.469 148.902,158.001C149.083,157.527 149.176,156.695 149.176,155.5L149.176,143.406L152.206,143.406L152.206,155.749C152.206,158.097 151.52,159.741 150.149,160.666C148.783,161.595 146.365,162.06 142.892,162.06L139.6,162.06C136.134,162.06 133.709,161.595 132.343,160.666C130.972,159.741 130.285,158.097 130.285,155.749L130.285,143.406ZM158.528,161.832L158.528,143.406L163.166,143.406L177.904,159.85L177.904,143.406L180.897,143.406L180.897,161.832L176.258,161.832L161.52,145.362L161.52,161.832L158.528,161.832ZM187.512,161.832L187.512,143.406L190.541,143.406L190.541,161.832L187.512,161.832ZM196.258,149.493C196.258,147.131 196.925,145.489 198.26,144.564C199.593,143.638 201.944,143.178 205.323,143.178L208.503,143.178C211.851,143.178 214.201,143.575 215.553,144.374C216.906,145.172 217.58,146.523 217.58,148.433L217.58,149.235L214.475,149.235L214.475,148.728C214.475,147.335 214.057,146.384 213.215,145.874C212.374,145.362 210.728,145.104 208.278,145.104L206.177,145.104C204.538,145.104 203.34,145.172 202.586,145.307C201.838,145.446 201.214,145.674 200.715,145.996C200.217,146.308 199.868,146.718 199.662,147.225C199.463,147.732 199.363,148.657 199.363,150L199.363,155.247C199.363,156.581 199.463,157.502 199.662,158.013C199.868,158.52 200.217,158.93 200.715,159.242C201.214,159.563 201.819,159.792 202.537,159.93C203.247,160.066 204.463,160.133 206.177,160.133L208.278,160.133C210.79,160.133 212.462,159.868 213.291,159.331C214.113,158.795 214.531,157.764 214.531,156.248C214.531,156.015 214.525,155.838 214.519,155.715C214.513,155.592 214.506,155.474 214.494,155.369L217.58,155.369L217.58,156.581C217.58,158.63 216.925,160.057 215.616,160.856C214.307,161.659 211.931,162.06 208.503,162.06L205.323,162.06C201.944,162.06 199.593,161.595 198.26,160.671C196.925,159.745 196.258,158.102 196.258,155.741L196.258,149.493ZM225.791,155.293L237.573,155.293L232.143,145.362L231.177,145.362L225.791,155.293ZM219.138,161.832L229.188,143.406L234.138,143.406L244.238,161.832L241.133,161.832L238.539,157.118L224.78,157.118L222.243,161.832L219.138,161.832ZM241.145,145.358L241.145,143.406L261.495,143.406L261.495,145.358L252.817,145.358L252.817,161.832L249.786,161.832L249.786,145.358L241.145,145.358ZM264.375,161.832L264.375,143.406L267.404,143.406L267.404,161.832L264.375,161.832ZM285.465,145.104L283.782,145.104C281.875,145.104 280.522,145.176 279.73,145.315C278.938,145.455 278.259,145.692 277.685,146.021C277.149,146.334 276.775,146.755 276.556,147.289C276.339,147.82 276.226,148.733 276.226,150.025L276.226,155.247C276.226,156.535 276.339,157.438 276.556,157.963C276.775,158.486 277.149,158.904 277.685,159.217C278.259,159.547 278.938,159.783 279.73,159.922C280.522,160.062 281.875,160.133 283.782,160.133L285.465,160.133C287.373,160.133 288.732,160.062 289.537,159.922C290.341,159.783 291.027,159.547 291.6,159.217C292.124,158.913 292.491,158.503 292.704,157.992C292.915,157.481 293.022,156.569 293.022,155.247L293.022,150.005C293.022,148.708 292.91,147.796 292.691,147.262C292.473,146.731 292.099,146.308 291.563,145.996C291.002,145.674 290.328,145.446 289.537,145.307C288.745,145.172 287.386,145.104 285.465,145.104ZM273.122,149.498C273.122,147.14 273.839,145.502 275.279,144.572C276.713,143.642 279.262,143.178 282.928,143.178L286.357,143.178C290.06,143.178 292.616,143.634 294.038,144.55C295.453,145.467 296.164,147.119 296.164,149.498L296.164,155.741C296.164,158.106 295.441,159.749 294,160.674C292.56,161.599 290.01,162.06 286.357,162.06L282.928,162.06C279.262,162.06 276.713,161.599 275.279,160.674C273.839,159.749 273.122,158.106 273.122,155.741L273.122,149.498ZM301.856,161.832L301.856,143.406L306.494,143.406L321.232,159.85L321.232,143.406L324.224,143.406L324.224,161.832L319.586,161.832L304.848,145.362L304.848,161.832L301.856,161.832ZM330.091,155.83L333.121,155.83L333.121,156.175C333.121,157.274 333.246,158.081 333.489,158.6C333.732,159.12 334.131,159.488 334.692,159.703C335.129,159.868 335.808,159.986 336.718,160.053C337.629,160.126 339.511,160.159 342.36,160.159C343.907,160.159 345.104,160.091 345.958,159.957C346.812,159.817 347.441,159.597 347.859,159.293C348.09,159.129 348.258,158.849 348.371,158.453C348.476,158.055 348.533,157.519 348.533,156.843C348.533,155.474 348.327,154.617 347.922,154.266C347.516,153.916 346.713,153.705 345.509,153.641L337.117,153.193C334.605,153.062 332.872,152.635 331.912,151.918C330.945,151.2 330.465,149.992 330.465,148.289C330.465,147.216 330.622,146.354 330.939,145.704C331.256,145.053 331.768,144.513 332.479,144.082C333.022,143.753 333.794,143.52 334.779,143.38C335.764,143.246 337.51,143.178 340.004,143.178L340.976,143.178C343.763,143.178 345.726,143.271 346.868,143.453C348.008,143.634 348.957,143.947 349.729,144.39C350.254,144.69 350.64,145.113 350.889,145.662C351.138,146.212 351.263,146.895 351.263,147.714C351.263,147.951 351.256,148.137 351.251,148.264C351.245,148.39 351.238,148.505 351.226,148.606L348.195,148.606L348.195,148.146C348.195,147.469 348.14,146.955 348.021,146.595C347.909,146.236 347.722,145.97 347.466,145.797C347.086,145.54 346.413,145.362 345.446,145.26C344.474,145.155 342.641,145.104 339.929,145.104C337.13,145.104 335.365,145.32 334.649,145.747C333.931,146.177 333.57,147.035 333.57,148.319C333.57,149.375 333.807,150.106 334.275,150.503C334.742,150.904 335.646,151.14 336.986,151.216L345.547,151.698C347.785,151.829 349.349,152.247 350.254,152.953C351.151,153.658 351.6,154.837 351.6,156.488C351.6,157.692 351.481,158.6 351.251,159.209C351.02,159.812 350.64,160.319 350.103,160.725C349.443,161.227 348.557,161.578 347.448,161.781C346.332,161.984 344.305,162.086 341.356,162.086L340.004,162.086C337.498,162.086 335.727,161.997 334.686,161.823C333.645,161.65 332.778,161.35 332.08,160.92C331.401,160.522 330.895,159.986 330.577,159.31C330.253,158.634 330.091,157.772 330.091,156.733L330.091,155.83ZM358.925,161.832L358.925,159.145L362.142,159.145L362.142,162.389C362.142,163.04 361.861,163.547 361.3,163.906C360.739,164.264 359.948,164.442 358.925,164.442L358.925,163.306C359.411,163.272 359.755,163.183 359.96,163.044C360.166,162.905 360.271,162.685 360.271,162.389L360.271,161.832L358.925,161.832ZM386.318,161.832L386.318,148.804L389.007,148.804L389.007,150.588C389.468,149.916 390.199,149.422 391.207,149.104C392.214,148.788 393.541,148.627 395.199,148.627C397.679,148.627 399.419,148.973 400.414,149.662C401.408,150.35 401.906,151.563 401.906,153.295L401.906,161.832L399.105,161.832L399.105,153.705C399.105,152.344 398.816,151.449 398.233,151.018C397.649,150.591 396.519,150.376 394.842,150.376C392.859,150.376 391.416,150.688 390.495,151.309C389.579,151.934 389.119,152.915 389.119,154.262L389.119,161.832L386.318,161.832ZM414.404,162.009C411.573,162.009 409.595,161.63 408.465,160.869C407.341,160.108 406.776,158.778 406.776,156.869L406.776,153.781C406.776,151.867 407.336,150.528 408.459,149.768C409.577,149.007 411.548,148.627 414.367,148.627L415.681,148.627C418.359,148.627 420.288,148.982 421.473,149.687C422.659,150.393 423.273,151.55 423.322,153.164L420.411,153.176C420.349,152.121 420.005,151.394 419.367,150.997C418.734,150.6 417.5,150.401 415.681,150.401L414.367,150.401C412.432,150.401 411.173,150.626 410.578,151.069C409.982,151.516 409.687,152.564 409.687,154.212L409.687,156.438C409.687,158.093 409.988,159.145 410.584,159.592C411.186,160.037 412.445,160.26 414.367,160.26L415.681,160.26C417.524,160.26 418.777,160.046 419.428,159.61C420.086,159.179 420.411,158.384 420.411,157.24L420.411,157.016L423.322,157.016L423.322,157.265C423.322,158.964 422.738,160.18 421.565,160.911C420.392,161.641 418.446,162.009 415.713,162.009L414.404,162.009ZM427.855,161.832L427.855,159.145L430.987,159.145L430.987,161.832L427.855,161.832Z" style="fill:white;fill-rule:nonzero;"/>
    </g>
</svg>
