<?xml version="1.0" encoding="UTF-8" standalone="no"?>
<!DOCTYPE svg PUBLIC "-//W3C//DTD SVG 1.1//EN" "http://www.w3.org/Graphics/SVG/1.1/DTD/svg11.dtd">
<svg width="100%" height="100%" viewBox="0 0 844 844" version="1.1" xmlns="http://www.w3.org/2000/svg" xmlns:xlink="http://www.w3.org/1999/xlink" xml:space="preserve" xmlns:serif="http://www.serif.com/" style="fill-rule:evenodd;clip-rule:evenodd;stroke-linejoin:round;stroke-miterlimit:2;">
    <g transform="matrix(1,0,0,1,-380.849,-1279.19)">
        <g transform="matrix(4.16667,0,0,4.16667,0,0)">
            <g transform="matrix(0,-1,-1,0,192.571,318.134)">
                <path d="M-90.039,-90.039C-40.311,-90.039 0,-49.727 0,0C0,49.728 -40.311,90.039 -90.039,90.039C-139.767,90.039 -180.079,49.728 -180.079,0C-180.079,-49.727 -139.767,-90.039 -90.039,-90.039" style="fill:rgb(150,22,25);fill-rule:nonzero;"/>
            </g>
        </g>
        <g transform="matrix(4.16667,0,0,4.16667,0,0)">
            <g transform="matrix(1,0,0,1,192.572,503.271)">
                <path d="M0,-190.195C-52.438,-190.195 -95.098,-147.535 -95.098,-95.097C-95.098,-42.661 -52.438,0 0,0C52.437,0 95.097,-42.661 95.097,-95.097C95.097,-147.535 52.437,-190.195 0,-190.195M0,6.07C-55.785,6.07 -101.168,-39.313 -101.168,-95.097C-101.168,-150.882 -55.785,-196.265 0,-196.265C55.784,-196.265 101.167,-150.882 101.167,-95.097C101.167,-39.313 55.784,6.07 0,6.07" style="fill:rgb(150,22,25);fill-rule:nonzero;"/>
            </g>
        </g>
        <g transform="matrix(4.16667,0,0,4.16667,0,0)">
            <g transform="matrix(1,0,0,1,224.919,363.787)">
                <path d="M0,88.773L0,75.258L22.754,75.258L22.754,88.773L0,88.773ZM-20.968,88.773L-43.722,88.773L-43.722,75.258L-20.968,75.258L-20.968,88.773ZM-60.473,3.684L-4.231,3.684L-4.231,38.908L-60.473,38.908L-60.473,3.684ZM-64.695,88.773L-87.449,88.773L-87.449,75.258L-64.695,75.258L-64.695,88.773ZM25.994,73.49C25.994,72.473 25.17,71.65 24.154,71.65L13.288,71.65L13.277,56.785L-30.441,56.785L-30.46,45.939L-1.68,45.939C0.759,45.939 2.736,43.961 2.736,41.522L2.736,0.965C2.736,-1.474 0.759,-3.452 -1.68,-3.452L-63.024,-3.452C-65.463,-3.452 -67.44,-1.474 -67.44,0.965L-67.44,41.522C-67.44,43.961 -65.463,45.939 -63.024,45.939L-34.271,45.939L-34.263,56.785L-77.985,56.785L-77.983,71.65L-88.85,71.65C-89.866,71.65 -90.69,72.473 -90.69,73.49L-90.69,90.385C-90.69,91.402 -89.866,92.225 -88.85,92.225L-63.295,92.225C-62.279,92.225 -61.455,91.402 -61.455,90.385L-61.455,73.49C-61.455,72.473 -62.279,71.65 -63.295,71.65L-74.162,71.65L-74.162,60.606L-34.263,60.606L-34.255,71.65L-45.122,71.65C-46.139,71.65 -46.962,72.473 -46.962,73.49L-46.962,90.385C-46.962,91.402 -46.139,92.225 -45.122,92.225L-19.567,92.225C-18.551,92.225 -17.727,91.402 -17.727,90.385L-17.727,73.49C-17.727,72.473 -18.551,71.65 -19.567,71.65L-30.434,71.65L-30.441,60.606L9.458,60.606L9.466,71.65L-1.401,71.65C-2.417,71.65 -3.241,72.473 -3.241,73.49L-3.241,90.385C-3.241,91.402 -2.417,92.225 -1.401,92.225L24.155,92.225C25.171,92.225 25.995,91.402 25.995,90.385L25.994,73.49Z" style="fill:rgb(250,249,246);fill-rule:nonzero;"/>
            </g>
        </g>
    </g>
</svg>
