<?xml version="1.0" encoding="UTF-8" standalone="no"?>
<!DOCTYPE svg PUBLIC "-//W3C//DTD SVG 1.1//EN" "http://www.w3.org/Graphics/SVG/1.1/DTD/svg11.dtd">
<svg width="100%" height="100%" viewBox="0 0 100 100" version="1.1" xmlns="http://www.w3.org/2000/svg" xmlns:xlink="http://www.w3.org/1999/xlink" xml:space="preserve" xmlns:serif="http://www.serif.com/" style="fill-rule:evenodd;clip-rule:evenodd;stroke-linejoin:round;stroke-miterlimit:2;">
    <g transform="matrix(0,-0.49423,-0.49423,0,50,5.49984)">
        <path d="M-90.039,-90.039C-40.312,-90.039 0,-49.727 0,0C0,49.728 -40.312,90.039 -90.039,90.039C-139.767,90.039 -180.079,49.728 -180.079,0C-180.079,-49.727 -139.767,-90.039 -90.039,-90.039" style="fill:rgb(150,22,25);fill-rule:nonzero;"/>
    </g>
    <g transform="matrix(0.49423,0,0,0.49423,50.0002,97)">
        <path d="M0,-190.195C-52.438,-190.195 -95.098,-147.534 -95.098,-95.097C-95.098,-42.66 -52.438,0 0,0C52.437,0 95.097,-42.66 95.097,-95.097C95.097,-147.534 52.437,-190.195 0,-190.195M0,6.07C-55.785,6.07 -101.168,-39.313 -101.168,-95.097C-101.168,-150.882 -55.785,-196.265 0,-196.265C55.784,-196.265 101.167,-150.882 101.167,-95.097C101.167,-39.313 55.784,6.07 0,6.07" style="fill:rgb(150,22,25);fill-rule:nonzero;"/>
    </g>
    <g transform="matrix(0.49423,0,0,0.49423,76.3093,34.1792)">
        <path d="M0,64.189C0.06,62.532 -0.817,61.072 -2.145,60.275L-2.137,60.262L-25.21,46.801L-25.212,46.818C-26.053,46.318 -27.021,46.005 -28.068,45.967C-29.735,45.907 -31.265,46.528 -32.396,47.58L-38.431,53.072C-38.783,53.365 -39.115,53.68 -39.44,54.001L-39.451,53.997C-39.905,54.481 -40.545,54.788 -41.262,54.788C-41.783,54.788 -42.265,54.626 -42.665,54.352C-56.895,47.127 -68.422,35.379 -75.332,20.966C-75.582,20.578 -75.731,20.119 -75.731,19.624C-75.731,18.841 -75.362,18.152 -74.798,17.696L-74.816,17.677L-69.491,12.235C-68.399,11.141 -67.723,9.635 -67.723,7.967C-67.723,6.919 -68.001,5.941 -68.471,5.082L-68.454,5.081L-81.073,-18.462L-81.086,-18.456C-81.835,-19.811 -83.262,-20.74 -84.92,-20.74C-86.058,-20.74 -87.084,-20.297 -87.865,-19.588L-87.878,-19.6L-88.024,-19.457C-88.027,-19.454 -88.03,-19.451 -88.033,-19.448L-101.242,-6.444L-101.22,-6.439C-104.462,-3.209 -106.468,1.254 -106.468,6.183C-106.468,8.322 -106.071,10.363 -105.379,12.263C-105.395,12.289 -105.409,12.32 -105.425,12.345C-93.707,46.363 -67.494,72.673 -33.185,83.663C-32.828,83.793 -32.462,83.902 -32.095,84.011C-31.907,84.069 -31.723,84.133 -31.534,84.191C-31.534,84.187 -31.532,84.183 -31.532,84.179C-30.296,84.5 -29.012,84.703 -27.684,84.751C-22.757,84.929 -18.225,83.086 -14.879,79.962L-14.876,79.984L-1.404,67.253L-1.395,67.244L-1.246,67.104L-1.257,67.09C-0.521,66.335 -0.041,65.326 0,64.189" style="fill:white;fill-rule:nonzero;"/>
    </g>
</svg>
