<?xml version="1.0" encoding="UTF-8" standalone="no"?>
<!DOCTYPE svg PUBLIC "-//W3C//DTD SVG 1.1//EN" "http://www.w3.org/Graphics/SVG/1.1/DTD/svg11.dtd">
<svg width="100%" height="100%" viewBox="0 0 844 844" version="1.1" xmlns="http://www.w3.org/2000/svg" xmlns:xlink="http://www.w3.org/1999/xlink" xml:space="preserve" xmlns:serif="http://www.serif.com/" style="fill-rule:evenodd;clip-rule:evenodd;stroke-linejoin:round;stroke-miterlimit:2;">
    <g transform="matrix(1,0,0,1,-2325.7,-321.5)">
        <g transform="matrix(4.16667,0,0,4.16667,0,0)">
            <g transform="matrix(0,-1,-1,0,659.335,88.2886)">
                <path d="M-90.039,-90.039C-40.312,-90.039 0,-49.726 0,0C0,49.728 -40.312,90.039 -90.039,90.039C-139.766,90.039 -180.078,49.728 -180.078,0C-180.078,-49.726 -139.766,-90.039 -90.039,-90.039" style="fill:rgb(150,22,25);fill-rule:nonzero;"/>
            </g>
        </g>
        <g transform="matrix(4.16667,0,0,4.16667,0,0)">
            <g transform="matrix(1,0,0,1,659.335,273.425)">
                <path d="M0,-190.195C-52.438,-190.195 -95.098,-147.534 -95.098,-95.097C-95.098,-42.66 -52.438,0 0,0C52.437,0 95.098,-42.66 95.098,-95.097C95.098,-147.534 52.437,-190.195 0,-190.195M0,6.07C-55.785,6.07 -101.168,-39.313 -101.168,-95.097C-101.168,-150.882 -55.785,-196.265 0,-196.265C55.784,-196.265 101.167,-150.882 101.167,-95.097C101.167,-39.313 55.784,6.07 0,6.07" style="fill:rgb(150,22,25);fill-rule:nonzero;"/>
            </g>
        </g>
        <g transform="matrix(4.16667,0,0,4.16667,0,0)">
            <g transform="matrix(1,0,0,1,638.633,205.691)">
                <path d="M0,-64.108L4.173,-70.066C5.553,-72.038 7.811,-73.215 10.217,-73.215C11.499,-73.215 12.767,-72.88 13.88,-72.242L80.72,-34.048L65.39,-26.385M73.165,-23.401C73.165,-16.76 68.181,-11.316 61.767,-10.467L67.254,-21.456L73.077,-24.367C73.106,-24.045 73.165,-23.712 73.165,-23.401M53.723,-6.091L-7.626,-41.487C-9.533,-42.588 -10.719,-44.641 -10.719,-46.845C-10.719,-48.123 -10.332,-49.349 -9.6,-50.396L-3.019,-59.796L61.853,-22.372L53.723,-6.091ZM23.828,-10.93C21.995,-7.881 17.682,-6.795 14.63,-8.631L7.981,-12.619C6.148,-13.717 5.01,-15.73 5.01,-17.867C5.01,-19.183 5.444,-20.486 6.233,-21.541L9.321,-25.657L26.661,-15.652L23.828,-10.93ZM6.904,0.764C4.956,3.687 1.694,5.434 -1.82,5.434L-21.204,5.434L-21.204,0.191L-1.82,0.191C-0.059,0.191 1.571,-0.682 2.542,-2.144L6.172,-7.591L10.674,-4.89L6.904,0.764ZM-26.446,10.668L-31.689,10.668L-31.689,-10.303L-26.446,-10.303L-26.446,10.668ZM87.572,-36.217L16.48,-76.877C10.997,-80.019 3.491,-78.325 -0.123,-73.152L-13.896,-53.463C-15.247,-51.529 -15.961,-49.262 -15.961,-46.902C-15.961,-42.825 -13.77,-39.028 -10.245,-36.994L4.748,-28.335L2.04,-24.721C0.573,-22.766 -0.233,-20.342 -0.233,-17.898C-0.233,-15.383 0.687,-13.019 2.17,-11.064L-1.82,-5.06L-21.204,-5.06L-21.204,-12.95C-21.204,-14.4 -22.377,-15.545 -23.825,-15.545L-34.311,-15.545C-35.76,-15.545 -36.933,-14.4 -36.933,-12.95L-36.933,13.288C-36.933,14.738 -35.76,15.911 -34.311,15.911L-23.825,15.911C-22.377,15.911 -21.204,14.738 -21.204,13.288L-21.204,10.668L-1.82,10.668C3.45,10.668 8.343,8.05 11.266,3.661L15.563,-2.79C16.391,-2.61 17.225,-2.447 18.078,-2.447C22.251,-2.447 26.178,-4.671 28.323,-8.253L31.203,-13.058L53.513,-0.174C53.914,0.059 54.367,0.177 54.823,0.177C55.077,0.177 55.33,0.141 55.578,0.066C56.27,-0.144 56.846,-0.628 57.168,-1.274L59.109,-5.164C59.428,-5.14 59.733,-5.071 60.059,-5.071C70.175,-5.071 78.408,-13.311 78.408,-23.437C78.408,-24.549 78.244,-25.695 78,-26.866L87.444,-31.592C88.31,-32.025 88.865,-32.899 88.894,-33.868C88.919,-34.834 88.412,-35.738 87.572,-36.217" style="fill:white;fill-rule:nonzero;"/>
            </g>
        </g>
    </g>
</svg>
