<?xml version="1.0" encoding="UTF-8" standalone="no"?>
<!DOCTYPE svg PUBLIC "-//W3C//DTD SVG 1.1//EN" "http://www.w3.org/Graphics/SVG/1.1/DTD/svg11.dtd">
<svg width="100%" height="100%" viewBox="0 0 847 848" version="1.1" xmlns="http://www.w3.org/2000/svg" xmlns:xlink="http://www.w3.org/1999/xlink" xml:space="preserve" xmlns:serif="http://www.serif.com/" style="fill-rule:evenodd;clip-rule:evenodd;stroke-linejoin:round;stroke-miterlimit:2;">
    <g transform="matrix(1,0,0,1,-2322.59,-1275)">
        <g transform="matrix(4.16667,0,0,4.16667,0,0)">
            <g transform="matrix(0,-1,-1,0,659.335,318.135)">
                <path d="M-90.039,-90.039C-40.311,-90.039 0,-49.726 0,0C0,49.728 -40.311,90.039 -90.039,90.039C-139.766,90.039 -180.078,49.728 -180.078,0C-180.078,-49.726 -139.766,-90.039 -90.039,-90.039" style="fill:rgb(150,22,25);fill-rule:nonzero;"/>
            </g>
        </g>
        <g transform="matrix(4.16667,0,0,4.16667,0,0)">
            <g transform="matrix(1,0,0,1,659.335,503.271)">
                <path d="M0,-190.195C-52.438,-190.195 -95.098,-147.535 -95.098,-95.097C-95.098,-42.661 -52.438,0 0,0C52.437,0 95.098,-42.661 95.098,-95.097C95.098,-147.535 52.437,-190.195 0,-190.195M0,6.07C-55.785,6.07 -101.168,-39.313 -101.168,-95.097C-101.168,-150.882 -55.785,-196.265 0,-196.265C55.784,-196.265 101.167,-150.882 101.167,-95.097C101.167,-39.313 55.784,6.07 0,6.07" style="fill:rgb(150,22,25);fill-rule:nonzero;"/>
            </g>
        </g>
        <g transform="matrix(4.16667,0,0,4.16667,0,0)">
            <g transform="matrix(0.470167,0,0,0.470167,659.334,402.344)">
                <g transform="matrix(1,0,0,1,-297.65,-297.65)">
                    <g>
                        <path d="M270.7,202.2C268.5,201 265.8,201 263.7,202.3L198.5,240.9L175,240.9C159.5,240.9 146.8,253.5 146.8,269.1L146.8,334.8C146.8,350.3 159.4,363 175,363L198.5,363L263.7,401.6C264.8,402.3 266,402.6 267.3,402.6C268.5,402.6 269.7,402.3 270.8,401.7C273,400.5 274.3,398.1 274.3,395.6L274.3,208.3C274.3,205.8 272.9,203.5 270.7,202.2ZM193.5,349L193.5,255L200.5,255C201.5,255 202.6,254.8 203.5,254.3L203.5,349.7C202.6,349.3 201.5,349 200.5,349L193.5,349Z" style="fill:white;fill-rule:nonzero;"/>
                        <path d="M402.9,186.9L394.2,193.7C420.9,220.3 437.5,257 437.5,297.6C437.5,338.2 420.9,374.9 394.2,401.5L402.9,408.3C431,379.8 448.4,340.7 448.4,297.6C448.4,254.5 431,215.4 402.9,186.9Z" style="fill:white;fill-rule:nonzero;"/>
                        <path d="M329.1,244.2L320,251.3C335.4,261 345.6,278.2 345.6,297.7C345.6,317.2 335.4,334.3 320,344.1L329.1,351.2C345.7,339.2 356.6,319.8 356.6,297.8C356.6,275.6 345.7,256.2 329.1,244.2Z" style="fill:white;fill-rule:nonzero;"/>
                        <path d="M363,217.9L354.2,224.8C374.6,242.5 387.5,268.6 387.5,297.7C387.5,326.8 374.6,352.9 354.2,370.6L363,377.5C384.7,357.8 398.4,329.3 398.4,297.7C398.4,266.1 384.8,237.6 363,217.9Z" style="fill:white;fill-rule:nonzero;"/>
                        <path d="M281.9,263.6L281.9,340.2C294.2,331.6 302,317.4 302,301.9C302,286.5 294.2,272.2 281.9,263.6Z" style="fill:white;fill-rule:nonzero;"/>
                    </g>
                </g>
            </g>
        </g>
    </g>
</svg>
